digraph "/home/pecqueux/Documents/GL/L3_GL_etudiant/TP_documentation/drunk_player/src/drunk_player/Chrono.hpp"
{
  edge [fontname="Helvetica",fontsize="10",labelfontname="Helvetica",labelfontsize="10"];
  node [fontname="Helvetica",fontsize="10",shape=record];
  Node2 [label="/home/pecqueux/Documents\l/GL/L3_GL_etudiant/TP_documentation\l/drunk_player/src/drunk_player\l/Chrono.hpp",height=0.2,width=0.4,color="black", fillcolor="grey75", style="filled", fontcolor="black"];
  Node2 -> Node3 [dir="back",color="midnightblue",fontsize="10",style="solid"];
  Node3 [label="/home/pecqueux/Documents\l/GL/L3_GL_etudiant/TP_documentation\l/drunk_player/src/drunk_player\l/Chrono.cpp",height=0.2,width=0.4,color="black", fillcolor="white", style="filled",URL="$Chrono_8cpp.html"];
  Node2 -> Node4 [dir="back",color="midnightblue",fontsize="10",style="solid"];
  Node4 [label="/home/pecqueux/Documents\l/GL/L3_GL_etudiant/TP_documentation\l/drunk_player/src/drunk_player\l_cli/drunk_player_cli.cpp",height=0.2,width=0.4,color="black", fillcolor="white", style="filled",URL="$drunk__player__cli_8cpp.html"];
}
