digraph "/home/pecqueux/Documents/GL/L3_GL_etudiant/TP_documentation/drunk_player/src/drunk_player_cli/drunk_player_cli.cpp"
{
  edge [fontname="Helvetica",fontsize="10",labelfontname="Helvetica",labelfontsize="10"];
  node [fontname="Helvetica",fontsize="10",shape=record];
  Node0 [label="/home/pecqueux/Documents\l/GL/L3_GL_etudiant/TP_documentation\l/drunk_player/src/drunk_player\l_cli/drunk_player_cli.cpp",height=0.2,width=0.4,color="black", fillcolor="grey75", style="filled", fontcolor="black"];
  Node0 -> Node1 [color="midnightblue",fontsize="10",style="solid"];
  Node1 [label="drunk_player/Chrono.hpp",height=0.2,width=0.4,color="black", fillcolor="white", style="filled",URL="$Chrono_8hpp.html"];
  Node1 -> Node2 [color="midnightblue",fontsize="10",style="solid"];
  Node2 [label="chrono",height=0.2,width=0.4,color="grey75", fillcolor="white", style="filled"];
  Node0 -> Node3 [color="midnightblue",fontsize="10",style="solid"];
  Node3 [label="drunk_player/Player.hpp",height=0.2,width=0.4,color="black", fillcolor="white", style="filled",URL="$Player_8hpp.html"];
  Node3 -> Node4 [color="midnightblue",fontsize="10",style="solid"];
  Node4 [label="drunk_player/Random.hpp",height=0.2,width=0.4,color="black", fillcolor="white", style="filled",URL="$Random_8hpp.html"];
  Node4 -> Node5 [color="midnightblue",fontsize="10",style="solid"];
  Node5 [label="random",height=0.2,width=0.4,color="grey75", fillcolor="white", style="filled"];
  Node3 -> Node6 [color="midnightblue",fontsize="10",style="solid"];
  Node6 [label="opencv2/opencv.hpp",height=0.2,width=0.4,color="grey75", fillcolor="white", style="filled"];
  Node3 -> Node7 [color="midnightblue",fontsize="10",style="solid"];
  Node7 [label="vector",height=0.2,width=0.4,color="grey75", fillcolor="white", style="filled"];
  Node0 -> Node8 [color="midnightblue",fontsize="10",style="solid"];
  Node8 [label="iostream",height=0.2,width=0.4,color="grey75", fillcolor="white", style="filled"];
}
