digraph "/home/pecqueux/Documents/GL/L3_GL_etudiant/TP_documentation/drunk_player/src/drunk_player/Random.cpp"
{
  edge [fontname="Helvetica",fontsize="10",labelfontname="Helvetica",labelfontsize="10"];
  node [fontname="Helvetica",fontsize="10",shape=record];
  Node0 [label="/home/pecqueux/Documents\l/GL/L3_GL_etudiant/TP_documentation\l/drunk_player/src/drunk_player\l/Random.cpp",height=0.2,width=0.4,color="black", fillcolor="grey75", style="filled", fontcolor="black"];
  Node0 -> Node1 [color="midnightblue",fontsize="10",style="solid"];
  Node1 [label="drunk_player/Random.hpp",height=0.2,width=0.4,color="black", fillcolor="white", style="filled",URL="$Random_8hpp.html"];
  Node1 -> Node2 [color="midnightblue",fontsize="10",style="solid"];
  Node2 [label="random",height=0.2,width=0.4,color="grey75", fillcolor="white", style="filled"];
}
